"CUSTOM_COMPANY_NUMBER","SSN","CUSTOM_EMPLOYEE_NUMBER","LAST_NAME","FIRST_NAME","BIRTH_DATE","CURRENT_HIRE_DATE","ADDRESS1","ADDRESS2","CITY","ZIP_CODE","STATE","E_MAIL_ADDRESS","Ethnicity","Current_Status_Code","Current_Termination_Date","GENDER","Middle_initial","pay_frequency","federal_marital_status","federal_dependents","home_state","home_state_marital_status","home_state_dependents","veteran","vietnam_veteran","CUSTOM_DIVISION_NUMBER","CUSTOM_BRANCH_NUMBER","CUSTOM_DEPARTMENT_NUMBER","CUSTOM_TEAM_NUMBER","PHONE1","PHONE2","Original_Hire_Date","Eligible_For_Rehire","Salary_Amount","sui_state","flsa_exempt","COMPANY_OR_INDIVIDUAL_NAME","I9_ON_FILE","military_reserve","smoker","position","WORKERS_COMP_CODE","JOB","Override_Fed_Tax_Type","Override_Fed_Tax_Value","Override_State_Tax_Type","Override_State_Tax_Value","STANDARD_HOURS","VMR_PASSWORD","PAY_GROUP"


